solid OpenSCAD_Model
  facet normal 0 0 -1
    outer loop
      vertex 45 -6.5 0
      vertex 70 0 0
      vertex 70 -6.5 0
    endloop
  endfacet
  facet normal 0 0 -1
    outer loop
      vertex 0 0 0
      vertex 45 -6.5 0
      vertex 0 -15 0
    endloop
  endfacet
  facet normal 0 0 -1
    outer loop
      vertex 45 -6.5 0
      vertex 0 0 0
      vertex 70 0 0
    endloop
  endfacet
  facet normal 0 0 1
    outer loop
      vertex 70 0 132.5
      vertex 62 -3 132.5
      vertex 70 -6.5 132.5
    endloop
  endfacet
  facet normal 0 0 1
    outer loop
      vertex 70 0 132.5
      vertex 61.247 -1.43634 132.5
      vertex 62 -3 132.5
    endloop
  endfacet
  facet normal 0 0 1
    outer loop
      vertex 70 0 132.5
      vertex 59.555 -1.05014 132.5
      vertex 61.247 -1.43634 132.5
    endloop
  endfacet
  facet normal 0 0 1
    outer loop
      vertex 58.1981 -2.13223 132.5
      vertex 45 -6.5 132.5
      vertex 58.1981 -3.86777 132.5
    endloop
  endfacet
  facet normal 0 0 1
    outer loop
      vertex 59.555 -1.05014 132.5
      vertex 45 -6.5 132.5
      vertex 58.1981 -2.13223 132.5
    endloop
  endfacet
  facet normal -0 0 1
    outer loop
      vertex 6.24698 -1.43634 132.5
      vertex 45 -6.5 132.5
      vertex 59.555 -1.05014 132.5
    endloop
  endfacet
  facet normal -0 0 1
    outer loop
      vertex 0 0 132.5
      vertex 59.555 -1.05014 132.5
      vertex 70 0 132.5
    endloop
  endfacet
  facet normal 0 0 1
    outer loop
      vertex 45 -6.5 132.5
      vertex 6.24698 -1.43634 132.5
      vertex 7 -3 132.5
    endloop
  endfacet
  facet normal 0 0 1
    outer loop
      vertex 59.555 -1.05014 132.5
      vertex 4.55496 -1.05014 132.5
      vertex 6.24698 -1.43634 132.5
    endloop
  endfacet
  facet normal 0 0 1
    outer loop
      vertex 3.19806 -2.13223 132.5
      vertex 0 0 132.5
      vertex 3.19806 -3.86777 132.5
    endloop
  endfacet
  facet normal 0 0 1
    outer loop
      vertex 4.55496 -1.05014 132.5
      vertex 0 0 132.5
      vertex 3.19806 -2.13223 132.5
    endloop
  endfacet
  facet normal 0 0 1
    outer loop
      vertex 59.555 -1.05014 132.5
      vertex 0 0 132.5
      vertex 4.55496 -1.05014 132.5
    endloop
  endfacet
  facet normal -0 0 1
    outer loop
      vertex 61.247 -4.56366 132.5
      vertex 70 -6.5 132.5
      vertex 62 -3 132.5
    endloop
  endfacet
  facet normal -0 0 1
    outer loop
      vertex 59.555 -4.94986 132.5
      vertex 70 -6.5 132.5
      vertex 61.247 -4.56366 132.5
    endloop
  endfacet
  facet normal 0 0 1
    outer loop
      vertex 59.555 -4.94986 132.5
      vertex 45 -6.5 132.5
      vertex 70 -6.5 132.5
    endloop
  endfacet
  facet normal 0 0 1
    outer loop
      vertex 45 -6.5 132.5
      vertex 59.555 -4.94986 132.5
      vertex 58.1981 -3.86777 132.5
    endloop
  endfacet
  facet normal -0 0 1
    outer loop
      vertex 6.24698 -4.56366 132.5
      vertex 45 -6.5 132.5
      vertex 7 -3 132.5
    endloop
  endfacet
  facet normal 0 0 1
    outer loop
      vertex 0 -15 132.5
      vertex 6.24698 -4.56366 132.5
      vertex 4.55496 -4.94986 132.5
    endloop
  endfacet
  facet normal 0 0 1
    outer loop
      vertex 6.24698 -4.56366 132.5
      vertex 0 -15 132.5
      vertex 45 -6.5 132.5
    endloop
  endfacet
  facet normal 0 0 1
    outer loop
      vertex 3.19806 -3.86777 132.5
      vertex 0 -15 132.5
      vertex 4.55496 -4.94986 132.5
    endloop
  endfacet
  facet normal 0 0 1
    outer loop
      vertex 0 -15 132.5
      vertex 3.19806 -3.86777 132.5
      vertex 0 0 132.5
    endloop
  endfacet
  facet normal 0 -1 0
    outer loop
      vertex 45 -6.5 0
      vertex 70 -6.5 132.5
      vertex 45 -6.5 132.5
    endloop
  endfacet
  facet normal 0 -1 -0
    outer loop
      vertex 70 -6.5 132.5
      vertex 45 -6.5 0
      vertex 70 -6.5 0
    endloop
  endfacet
  facet normal 1 -0 0
    outer loop
      vertex 70 -6.5 132.5
      vertex 70 0 0
      vertex 70 0 132.5
    endloop
  endfacet
  facet normal 1 0 0
    outer loop
      vertex 70 0 0
      vertex 70 -6.5 132.5
      vertex 70 -6.5 0
    endloop
  endfacet
  facet normal 0 1 -0
    outer loop
      vertex 70 0 0
      vertex 0 0 132.5
      vertex 70 0 132.5
    endloop
  endfacet
  facet normal 0 1 0
    outer loop
      vertex 0 0 132.5
      vertex 70 0 0
      vertex 0 0 0
    endloop
  endfacet
  facet normal -1 0 0
    outer loop
      vertex 0 -15 0
      vertex 0 0 132.5
      vertex 0 0 0
    endloop
  endfacet
  facet normal -1 -0 0
    outer loop
      vertex 0 0 132.5
      vertex 0 -15 0
      vertex 0 -15 132.5
    endloop
  endfacet
  facet normal 0.185607 -0.982624 0
    outer loop
      vertex 0 -15 0
      vertex 45 -6.5 132.5
      vertex 0 -15 132.5
    endloop
  endfacet
  facet normal 0.185607 -0.982624 0
    outer loop
      vertex 45 -6.5 132.5
      vertex 0 -15 0
      vertex 45 -6.5 0
    endloop
  endfacet
  facet normal 0.900969 0.433884 0
    outer loop
      vertex 7 -3 142.5
      vertex 6.24698 -1.43634 132.5
      vertex 6.24698 -1.43634 142.5
    endloop
  endfacet
  facet normal 0.900969 0.433884 0
    outer loop
      vertex 6.24698 -1.43634 132.5
      vertex 7 -3 142.5
      vertex 7 -3 132.5
    endloop
  endfacet
  facet normal -1 0 0
    outer loop
      vertex 3.19806 -3.86777 132.5
      vertex 3.19806 -2.13223 142.5
      vertex 3.19806 -2.13223 132.5
    endloop
  endfacet
  facet normal -1 -0 0
    outer loop
      vertex 3.19806 -2.13223 142.5
      vertex 3.19806 -3.86777 132.5
      vertex 3.19806 -3.86777 142.5
    endloop
  endfacet
  facet normal 0.222525 0.974927 -0
    outer loop
      vertex 6.24698 -1.43634 132.5
      vertex 4.55496 -1.05014 142.5
      vertex 6.24698 -1.43634 142.5
    endloop
  endfacet
  facet normal 0.222525 0.974927 0
    outer loop
      vertex 4.55496 -1.05014 142.5
      vertex 6.24698 -1.43634 132.5
      vertex 4.55496 -1.05014 132.5
    endloop
  endfacet
  facet normal 0 0 1
    outer loop
      vertex 6.24698 -1.43634 142.5
      vertex 6.24698 -4.56366 142.5
      vertex 7 -3 142.5
    endloop
  endfacet
  facet normal 0 0 1
    outer loop
      vertex 4.55496 -1.05014 142.5
      vertex 6.24698 -4.56366 142.5
      vertex 6.24698 -1.43634 142.5
    endloop
  endfacet
  facet normal 0 0 1
    outer loop
      vertex 4.55496 -1.05014 142.5
      vertex 4.55496 -4.94986 142.5
      vertex 6.24698 -4.56366 142.5
    endloop
  endfacet
  facet normal -0 0 1
    outer loop
      vertex 3.19806 -2.13223 142.5
      vertex 4.55496 -4.94986 142.5
      vertex 4.55496 -1.05014 142.5
    endloop
  endfacet
  facet normal 0 0 1
    outer loop
      vertex 4.55496 -4.94986 142.5
      vertex 3.19806 -2.13223 142.5
      vertex 3.19806 -3.86777 142.5
    endloop
  endfacet
  facet normal -0.623489 0.781832 0
    outer loop
      vertex 4.55496 -1.05014 132.5
      vertex 3.19806 -2.13223 142.5
      vertex 4.55496 -1.05014 142.5
    endloop
  endfacet
  facet normal -0.623489 0.781832 0
    outer loop
      vertex 3.19806 -2.13223 142.5
      vertex 4.55496 -1.05014 132.5
      vertex 3.19806 -2.13223 132.5
    endloop
  endfacet
  facet normal 0.900969 -0.433884 0
    outer loop
      vertex 6.24698 -4.56366 142.5
      vertex 7 -3 132.5
      vertex 7 -3 142.5
    endloop
  endfacet
  facet normal 0.900969 -0.433884 0
    outer loop
      vertex 7 -3 132.5
      vertex 6.24698 -4.56366 142.5
      vertex 6.24698 -4.56366 132.5
    endloop
  endfacet
  facet normal 0.222525 -0.974927 0
    outer loop
      vertex 4.55496 -4.94986 132.5
      vertex 6.24698 -4.56366 142.5
      vertex 4.55496 -4.94986 142.5
    endloop
  endfacet
  facet normal 0.222525 -0.974927 0
    outer loop
      vertex 6.24698 -4.56366 142.5
      vertex 4.55496 -4.94986 132.5
      vertex 6.24698 -4.56366 132.5
    endloop
  endfacet
  facet normal -0.623489 -0.781832 0
    outer loop
      vertex 3.19806 -3.86777 132.5
      vertex 4.55496 -4.94986 142.5
      vertex 3.19806 -3.86777 142.5
    endloop
  endfacet
  facet normal -0.623489 -0.781832 -0
    outer loop
      vertex 4.55496 -4.94986 142.5
      vertex 3.19806 -3.86777 132.5
      vertex 4.55496 -4.94986 132.5
    endloop
  endfacet
  facet normal 0.900973 0.433875 0
    outer loop
      vertex 62 -3 142.5
      vertex 61.247 -1.43634 132.5
      vertex 61.247 -1.43634 142.5
    endloop
  endfacet
  facet normal 0.900973 0.433875 0
    outer loop
      vertex 61.247 -1.43634 132.5
      vertex 62 -3 142.5
      vertex 62 -3 132.5
    endloop
  endfacet
  facet normal -1 0 0
    outer loop
      vertex 58.1981 -3.86777 132.5
      vertex 58.1981 -2.13223 142.5
      vertex 58.1981 -2.13223 132.5
    endloop
  endfacet
  facet normal -1 -0 0
    outer loop
      vertex 58.1981 -2.13223 142.5
      vertex 58.1981 -3.86777 132.5
      vertex 58.1981 -3.86777 142.5
    endloop
  endfacet
  facet normal 0.222528 0.974926 -0
    outer loop
      vertex 61.247 -1.43634 132.5
      vertex 59.555 -1.05014 142.5
      vertex 61.247 -1.43634 142.5
    endloop
  endfacet
  facet normal 0.222528 0.974926 0
    outer loop
      vertex 59.555 -1.05014 142.5
      vertex 61.247 -1.43634 132.5
      vertex 59.555 -1.05014 132.5
    endloop
  endfacet
  facet normal 0 0 1
    outer loop
      vertex 61.247 -1.43634 142.5
      vertex 61.247 -4.56366 142.5
      vertex 62 -3 142.5
    endloop
  endfacet
  facet normal 0 0 1
    outer loop
      vertex 59.555 -1.05014 142.5
      vertex 61.247 -4.56366 142.5
      vertex 61.247 -1.43634 142.5
    endloop
  endfacet
  facet normal 0 0 1
    outer loop
      vertex 59.555 -1.05014 142.5
      vertex 59.555 -4.94986 142.5
      vertex 61.247 -4.56366 142.5
    endloop
  endfacet
  facet normal -0 0 1
    outer loop
      vertex 58.1981 -2.13223 142.5
      vertex 59.555 -4.94986 142.5
      vertex 59.555 -1.05014 142.5
    endloop
  endfacet
  facet normal 0 0 1
    outer loop
      vertex 59.555 -4.94986 142.5
      vertex 58.1981 -2.13223 142.5
      vertex 58.1981 -3.86777 142.5
    endloop
  endfacet
  facet normal -0.623489 0.781832 0
    outer loop
      vertex 59.555 -1.05014 132.5
      vertex 58.1981 -2.13223 142.5
      vertex 59.555 -1.05014 142.5
    endloop
  endfacet
  facet normal -0.623489 0.781832 0
    outer loop
      vertex 58.1981 -2.13223 142.5
      vertex 59.555 -1.05014 132.5
      vertex 58.1981 -2.13223 132.5
    endloop
  endfacet
  facet normal 0.222528 -0.974926 0
    outer loop
      vertex 59.555 -4.94986 132.5
      vertex 61.247 -4.56366 142.5
      vertex 59.555 -4.94986 142.5
    endloop
  endfacet
  facet normal 0.222528 -0.974926 0
    outer loop
      vertex 61.247 -4.56366 142.5
      vertex 59.555 -4.94986 132.5
      vertex 61.247 -4.56366 132.5
    endloop
  endfacet
  facet normal -0.623489 -0.781832 0
    outer loop
      vertex 58.1981 -3.86777 132.5
      vertex 59.555 -4.94986 142.5
      vertex 58.1981 -3.86777 142.5
    endloop
  endfacet
  facet normal -0.623489 -0.781832 -0
    outer loop
      vertex 59.555 -4.94986 142.5
      vertex 58.1981 -3.86777 132.5
      vertex 59.555 -4.94986 132.5
    endloop
  endfacet
  facet normal 0.900973 -0.433875 0
    outer loop
      vertex 61.247 -4.56366 142.5
      vertex 62 -3 132.5
      vertex 62 -3 142.5
    endloop
  endfacet
  facet normal 0.900973 -0.433875 0
    outer loop
      vertex 62 -3 132.5
      vertex 61.247 -4.56366 142.5
      vertex 61.247 -4.56366 132.5
    endloop
  endfacet
  facet normal 0 0 -1
    outer loop
      vertex 45 13.5 0
      vertex 70 20 0
      vertex 70 13.5 0
    endloop
  endfacet
  facet normal 0 0 -1
    outer loop
      vertex 0 20 0
      vertex 45 13.5 0
      vertex 0 5 0
    endloop
  endfacet
  facet normal 0 0 -1
    outer loop
      vertex 45 13.5 0
      vertex 0 20 0
      vertex 70 20 0
    endloop
  endfacet
  facet normal 0 0 1
    outer loop
      vertex 70 20 132.5
      vertex 62 17 132.5
      vertex 70 13.5 132.5
    endloop
  endfacet
  facet normal 0 0 1
    outer loop
      vertex 70 20 132.5
      vertex 61.247 18.5637 132.5
      vertex 62 17 132.5
    endloop
  endfacet
  facet normal 0 0 1
    outer loop
      vertex 70 20 132.5
      vertex 59.555 18.9499 132.5
      vertex 61.247 18.5637 132.5
    endloop
  endfacet
  facet normal 0 0 1
    outer loop
      vertex 58.1981 17.8678 132.5
      vertex 45 13.5 132.5
      vertex 58.1981 16.1322 132.5
    endloop
  endfacet
  facet normal 0 0 1
    outer loop
      vertex 59.555 18.9499 132.5
      vertex 45 13.5 132.5
      vertex 58.1981 17.8678 132.5
    endloop
  endfacet
  facet normal -0 0 1
    outer loop
      vertex 6.24698 18.5637 132.5
      vertex 45 13.5 132.5
      vertex 59.555 18.9499 132.5
    endloop
  endfacet
  facet normal -0 0 1
    outer loop
      vertex 0 20 132.5
      vertex 59.555 18.9499 132.5
      vertex 70 20 132.5
    endloop
  endfacet
  facet normal 0 0 1
    outer loop
      vertex 45 13.5 132.5
      vertex 6.24698 18.5637 132.5
      vertex 7 17 132.5
    endloop
  endfacet
  facet normal 0 0 1
    outer loop
      vertex 59.555 18.9499 132.5
      vertex 4.55496 18.9499 132.5
      vertex 6.24698 18.5637 132.5
    endloop
  endfacet
  facet normal 0 0 1
    outer loop
      vertex 3.19806 17.8678 132.5
      vertex 0 20 132.5
      vertex 3.19806 16.1322 132.5
    endloop
  endfacet
  facet normal 0 0 1
    outer loop
      vertex 4.55496 18.9499 132.5
      vertex 0 20 132.5
      vertex 3.19806 17.8678 132.5
    endloop
  endfacet
  facet normal 0 0 1
    outer loop
      vertex 59.555 18.9499 132.5
      vertex 0 20 132.5
      vertex 4.55496 18.9499 132.5
    endloop
  endfacet
  facet normal -0 0 1
    outer loop
      vertex 61.247 15.4363 132.5
      vertex 70 13.5 132.5
      vertex 62 17 132.5
    endloop
  endfacet
  facet normal -0 0 1
    outer loop
      vertex 59.555 15.0501 132.5
      vertex 70 13.5 132.5
      vertex 61.247 15.4363 132.5
    endloop
  endfacet
  facet normal 0 0 1
    outer loop
      vertex 59.555 15.0501 132.5
      vertex 45 13.5 132.5
      vertex 70 13.5 132.5
    endloop
  endfacet
  facet normal 0 0 1
    outer loop
      vertex 45 13.5 132.5
      vertex 59.555 15.0501 132.5
      vertex 58.1981 16.1322 132.5
    endloop
  endfacet
  facet normal -0 0 1
    outer loop
      vertex 6.24698 15.4363 132.5
      vertex 45 13.5 132.5
      vertex 7 17 132.5
    endloop
  endfacet
  facet normal 0 0 1
    outer loop
      vertex 0 5 132.5
      vertex 6.24698 15.4363 132.5
      vertex 4.55496 15.0501 132.5
    endloop
  endfacet
  facet normal 0 0 1
    outer loop
      vertex 6.24698 15.4363 132.5
      vertex 0 5 132.5
      vertex 45 13.5 132.5
    endloop
  endfacet
  facet normal 0 0 1
    outer loop
      vertex 3.19806 16.1322 132.5
      vertex 0 5 132.5
      vertex 4.55496 15.0501 132.5
    endloop
  endfacet
  facet normal 0 0 1
    outer loop
      vertex 0 5 132.5
      vertex 3.19806 16.1322 132.5
      vertex 0 20 132.5
    endloop
  endfacet
  facet normal 0 -1 0
    outer loop
      vertex 45 13.5 0
      vertex 70 13.5 132.5
      vertex 45 13.5 132.5
    endloop
  endfacet
  facet normal 0 -1 -0
    outer loop
      vertex 70 13.5 132.5
      vertex 45 13.5 0
      vertex 70 13.5 0
    endloop
  endfacet
  facet normal 1 -0 0
    outer loop
      vertex 70 13.5 132.5
      vertex 70 20 0
      vertex 70 20 132.5
    endloop
  endfacet
  facet normal 1 0 0
    outer loop
      vertex 70 20 0
      vertex 70 13.5 132.5
      vertex 70 13.5 0
    endloop
  endfacet
  facet normal 0 1 -0
    outer loop
      vertex 70 20 0
      vertex 0 20 132.5
      vertex 70 20 132.5
    endloop
  endfacet
  facet normal 0 1 0
    outer loop
      vertex 0 20 132.5
      vertex 70 20 0
      vertex 0 20 0
    endloop
  endfacet
  facet normal -1 0 0
    outer loop
      vertex 0 5 0
      vertex 0 20 132.5
      vertex 0 20 0
    endloop
  endfacet
  facet normal -1 -0 0
    outer loop
      vertex 0 20 132.5
      vertex 0 5 0
      vertex 0 5 132.5
    endloop
  endfacet
  facet normal 0.185607 -0.982624 0
    outer loop
      vertex 0 5 0
      vertex 45 13.5 132.5
      vertex 0 5 132.5
    endloop
  endfacet
  facet normal 0.185607 -0.982624 0
    outer loop
      vertex 45 13.5 132.5
      vertex 0 5 0
      vertex 45 13.5 0
    endloop
  endfacet
  facet normal -0.900973 -0.433875 0
    outer loop
      vertex 7 17 122.5
      vertex 6.24698 18.5637 132.5
      vertex 6.24698 18.5637 122.5
    endloop
  endfacet
  facet normal -0.900973 -0.433875 0
    outer loop
      vertex 6.24698 18.5637 132.5
      vertex 7 17 122.5
      vertex 7 17 132.5
    endloop
  endfacet
  facet normal 1 -0 0
    outer loop
      vertex 3.19806 16.1322 132.5
      vertex 3.19806 17.8678 122.5
      vertex 3.19806 17.8678 132.5
    endloop
  endfacet
  facet normal 1 0 0
    outer loop
      vertex 3.19806 17.8678 122.5
      vertex 3.19806 16.1322 132.5
      vertex 3.19806 16.1322 122.5
    endloop
  endfacet
  facet normal -0.222525 -0.974927 0
    outer loop
      vertex 4.55496 18.9499 122.5
      vertex 6.24698 18.5637 132.5
      vertex 4.55496 18.9499 132.5
    endloop
  endfacet
  facet normal -0.222525 -0.974927 -0
    outer loop
      vertex 6.24698 18.5637 132.5
      vertex 4.55496 18.9499 122.5
      vertex 6.24698 18.5637 122.5
    endloop
  endfacet
  facet normal 0.623493 -0.781829 0
    outer loop
      vertex 3.19806 17.8678 122.5
      vertex 4.55496 18.9499 132.5
      vertex 3.19806 17.8678 132.5
    endloop
  endfacet
  facet normal 0.623493 -0.781829 0
    outer loop
      vertex 4.55496 18.9499 132.5
      vertex 3.19806 17.8678 122.5
      vertex 4.55496 18.9499 122.5
    endloop
  endfacet
  facet normal -0.900973 0.433875 0
    outer loop
      vertex 6.24698 15.4363 122.5
      vertex 7 17 132.5
      vertex 7 17 122.5
    endloop
  endfacet
  facet normal -0.900973 0.433875 0
    outer loop
      vertex 7 17 132.5
      vertex 6.24698 15.4363 122.5
      vertex 6.24698 15.4363 132.5
    endloop
  endfacet
  facet normal 0 0 1
    outer loop
      vertex 6.24698 18.5637 122.5
      vertex 6.24698 15.4363 122.5
      vertex 7 17 122.5
    endloop
  endfacet
  facet normal 0 0 1
    outer loop
      vertex 4.55496 18.9499 122.5
      vertex 6.24698 15.4363 122.5
      vertex 6.24698 18.5637 122.5
    endloop
  endfacet
  facet normal 0 0 1
    outer loop
      vertex 4.55496 18.9499 122.5
      vertex 4.55496 15.0501 122.5
      vertex 6.24698 15.4363 122.5
    endloop
  endfacet
  facet normal -0 0 1
    outer loop
      vertex 3.19806 17.8678 122.5
      vertex 4.55496 15.0501 122.5
      vertex 4.55496 18.9499 122.5
    endloop
  endfacet
  facet normal 0 0 1
    outer loop
      vertex 4.55496 15.0501 122.5
      vertex 3.19806 17.8678 122.5
      vertex 3.19806 16.1322 122.5
    endloop
  endfacet
  facet normal -0.222525 0.974927 0
    outer loop
      vertex 6.24698 15.4363 122.5
      vertex 4.55496 15.0501 132.5
      vertex 6.24698 15.4363 132.5
    endloop
  endfacet
  facet normal -0.222525 0.974927 0
    outer loop
      vertex 4.55496 15.0501 132.5
      vertex 6.24698 15.4363 122.5
      vertex 4.55496 15.0501 122.5
    endloop
  endfacet
  facet normal 0.623493 0.781829 -0
    outer loop
      vertex 4.55496 15.0501 122.5
      vertex 3.19806 16.1322 132.5
      vertex 4.55496 15.0501 132.5
    endloop
  endfacet
  facet normal 0.623493 0.781829 0
    outer loop
      vertex 3.19806 16.1322 132.5
      vertex 4.55496 15.0501 122.5
      vertex 3.19806 16.1322 122.5
    endloop
  endfacet
  facet normal -0.900977 -0.433866 0
    outer loop
      vertex 62 17 122.5
      vertex 61.247 18.5637 132.5
      vertex 61.247 18.5637 122.5
    endloop
  endfacet
  facet normal -0.900977 -0.433866 0
    outer loop
      vertex 61.247 18.5637 132.5
      vertex 62 17 122.5
      vertex 62 17 132.5
    endloop
  endfacet
  facet normal 1 -0 0
    outer loop
      vertex 58.1981 16.1322 132.5
      vertex 58.1981 17.8678 122.5
      vertex 58.1981 17.8678 132.5
    endloop
  endfacet
  facet normal 1 0 0
    outer loop
      vertex 58.1981 17.8678 122.5
      vertex 58.1981 16.1322 132.5
      vertex 58.1981 16.1322 122.5
    endloop
  endfacet
  facet normal -0.222528 -0.974926 0
    outer loop
      vertex 59.555 18.9499 122.5
      vertex 61.247 18.5637 132.5
      vertex 59.555 18.9499 132.5
    endloop
  endfacet
  facet normal -0.222528 -0.974926 -0
    outer loop
      vertex 61.247 18.5637 132.5
      vertex 59.555 18.9499 122.5
      vertex 61.247 18.5637 122.5
    endloop
  endfacet
  facet normal 0.623493 -0.781829 0
    outer loop
      vertex 58.1981 17.8678 122.5
      vertex 59.555 18.9499 132.5
      vertex 58.1981 17.8678 132.5
    endloop
  endfacet
  facet normal 0.623493 -0.781829 0
    outer loop
      vertex 59.555 18.9499 132.5
      vertex 58.1981 17.8678 122.5
      vertex 59.555 18.9499 122.5
    endloop
  endfacet
  facet normal -0.900977 0.433866 0
    outer loop
      vertex 61.247 15.4363 122.5
      vertex 62 17 132.5
      vertex 62 17 122.5
    endloop
  endfacet
  facet normal -0.900977 0.433866 0
    outer loop
      vertex 62 17 132.5
      vertex 61.247 15.4363 122.5
      vertex 61.247 15.4363 132.5
    endloop
  endfacet
  facet normal 0 0 1
    outer loop
      vertex 61.247 18.5637 122.5
      vertex 61.247 15.4363 122.5
      vertex 62 17 122.5
    endloop
  endfacet
  facet normal 0 0 1
    outer loop
      vertex 59.555 18.9499 122.5
      vertex 61.247 15.4363 122.5
      vertex 61.247 18.5637 122.5
    endloop
  endfacet
  facet normal 0 0 1
    outer loop
      vertex 59.555 18.9499 122.5
      vertex 59.555 15.0501 122.5
      vertex 61.247 15.4363 122.5
    endloop
  endfacet
  facet normal -0 0 1
    outer loop
      vertex 58.1981 17.8678 122.5
      vertex 59.555 15.0501 122.5
      vertex 59.555 18.9499 122.5
    endloop
  endfacet
  facet normal 0 0 1
    outer loop
      vertex 59.555 15.0501 122.5
      vertex 58.1981 17.8678 122.5
      vertex 58.1981 16.1322 122.5
    endloop
  endfacet
  facet normal -0.222528 0.974926 0
    outer loop
      vertex 61.247 15.4363 122.5
      vertex 59.555 15.0501 132.5
      vertex 61.247 15.4363 132.5
    endloop
  endfacet
  facet normal -0.222528 0.974926 0
    outer loop
      vertex 59.555 15.0501 132.5
      vertex 61.247 15.4363 122.5
      vertex 59.555 15.0501 122.5
    endloop
  endfacet
  facet normal 0.623493 0.781829 -0
    outer loop
      vertex 59.555 15.0501 122.5
      vertex 58.1981 16.1322 132.5
      vertex 59.555 15.0501 132.5
    endloop
  endfacet
  facet normal 0.623493 0.781829 0
    outer loop
      vertex 58.1981 16.1322 132.5
      vertex 59.555 15.0501 122.5
      vertex 58.1981 16.1322 122.5
    endloop
  endfacet
endsolid OpenSCAD_Model
